%YAML 1.1
%TAG !u! tag:unity3d.com,2011:
--- !u!114 &11400000
MonoBehaviour:
  m_ObjectHideFlags: 0
  m_CorrespondingSourceObject: {fileID: 0}
  m_PrefabInstance: {fileID: 0}
  m_PrefabAsset: {fileID: 0}
  m_GameObject: {fileID: 0}
  m_Enabled: 1
  m_EditorHideFlags: 0
  m_Script: {fileID: 11500000, guid: 392c7d49d0b3d26488035a30ac8a7865, type: 3}
  m_Name: Monster
  m_EditorClassIdentifier: 
  displayName: Monster
  mySpells:
  - {fileID: 11400000, guid: a96ef5b620131ef4083848ab1e7d0a4d, type: 2}
  myDice:
  - {fileID: 11400000, guid: 4ca781879a2d4e94e931144b76d1f227, type: 2}
  - {fileID: 11400000, guid: 6d547f93f48b8614eb355b333ba2954d, type: 2}
  maxHealth: 20
  currentHealth: 20
  CasterImage: {fileID: 21300000, guid: f5850905b2ae2ff46a5f10e049a4f7ba, type: 3}
  potentialRewards:
  - {fileID: 11400000, guid: f42a5d61202e9cf4a9e117c8854b2b86, type: 2}
