%YAML 1.1
%TAG !u! tag:unity3d.com,2011:
--- !u!114 &11400000
MonoBehaviour:
  m_ObjectHideFlags: 0
  m_CorrespondingSourceObject: {fileID: 0}
  m_PrefabInstance: {fileID: 0}
  m_PrefabAsset: {fileID: 0}
  m_GameObject: {fileID: 0}
  m_Enabled: 1
  m_EditorHideFlags: 0
  m_Script: {fileID: 11500000, guid: 092e6e5e27b53734c880deb1505262a6, type: 3}
  m_Name: RedDice8
  m_EditorClassIdentifier: Assembly-CSharp::Die
  myDiceValues: 0100000002000000030000000400000005000000060000000700000008000000
  myColor: 0
  lastValue: -1
